EESchema Schematic File Version 2
LIBS:power
LIBS:device
LIBS:transistors
LIBS:conn
LIBS:linear
LIBS:regul
LIBS:74xx
LIBS:cmos4000
LIBS:adc-dac
LIBS:memory
LIBS:xilinx
LIBS:microcontrollers
LIBS:dsp
LIBS:microchip
LIBS:analog_switches
LIBS:motorola
LIBS:texas
LIBS:intel
LIBS:audio
LIBS:interface
LIBS:digital-audio
LIBS:philips
LIBS:display
LIBS:cypress
LIBS:siliconi
LIBS:opto
LIBS:atmel
LIBS:contrib
LIBS:valves
LIBS:radio
LIBS:stm32
LIBS:sound
LIBS:project-cache
EELAYER 25 0
EELAYER END
$Descr A4 11693 8268
encoding utf-8
Sheet 1 1
Title ""
Date ""
Rev ""
Comp ""
Comment1 ""
Comment2 ""
Comment3 ""
Comment4 ""
$EndDescr
$Comp
L STM32F103RBT6 D2
U 1 1 56AC4971
P 3000 2400
F 0 "D2" H 3000 4200 60  0000 C CNN
F 1 "STM32F103RBT6" H 3000 600 60  0000 C CNN
F 2 "Local:LQFP-64_10x10mm_Pitch0.5mm" H 3000 2400 60  0001 C CNN
F 3 "" H 3000 2400 60  0000 C CNN
	1    3000 2400
	1    0    0    -1  
$EndComp
$Comp
L XL4432-SMT D1
U 1 1 56AC4A9D
P 9900 1600
F 0 "D1" H 9900 2350 60  0000 C CNN
F 1 "XL4432-SMT" H 9900 900 60  0000 C CNN
F 2 "Local:XL4432-SMT" H 9900 1600 60  0001 C CNN
F 3 "" H 9900 1600 60  0000 C CNN
	1    9900 1600
	1    0    0    -1  
$EndComp
$Comp
L GND #PWR01
U 1 1 56AC4D0C
P 1100 4100
F 0 "#PWR01" H 1100 3850 50  0001 C CNN
F 1 "GND" H 1100 3950 50  0000 C CNN
F 2 "" H 1100 4100 60  0000 C CNN
F 3 "" H 1100 4100 60  0000 C CNN
	1    1100 4100
	1    0    0    -1  
$EndComp
$Comp
L +3V3 #PWR02
U 1 1 56AC4D8D
P 800 3650
F 0 "#PWR02" H 800 3500 50  0001 C CNN
F 1 "+3V3" H 800 3790 50  0000 C CNN
F 2 "" H 800 3650 60  0000 C CNN
F 3 "" H 800 3650 60  0000 C CNN
	1    800  3650
	1    0    0    -1  
$EndComp
$Comp
L C C15
U 1 1 56AC4E40
P 2200 6950
F 0 "C15" H 2225 7050 50  0000 L CNN
F 1 "100n" H 2225 6850 50  0000 L CNN
F 2 "Local:C_0603" H 2238 6800 30  0001 C CNN
F 3 "" H 2200 6950 60  0000 C CNN
	1    2200 6950
	1    0    0    -1  
$EndComp
$Comp
L C C16
U 1 1 56AC4EE1
P 2500 6950
F 0 "C16" H 2525 7050 50  0000 L CNN
F 1 "100n" H 2525 6850 50  0000 L CNN
F 2 "Local:C_0603" H 2538 6800 30  0001 C CNN
F 3 "" H 2500 6950 60  0000 C CNN
	1    2500 6950
	1    0    0    -1  
$EndComp
$Comp
L C C17
U 1 1 56AC4F15
P 2800 6950
F 0 "C17" H 2825 7050 50  0000 L CNN
F 1 "100n" H 2825 6850 50  0000 L CNN
F 2 "Local:C_0603" H 2838 6800 30  0001 C CNN
F 3 "" H 2800 6950 60  0000 C CNN
	1    2800 6950
	1    0    0    -1  
$EndComp
$Comp
L C C18
U 1 1 56AC4F3C
P 3100 6950
F 0 "C18" H 3125 7050 50  0000 L CNN
F 1 "100n" H 3125 6850 50  0000 L CNN
F 2 "Local:C_0603" H 3138 6800 30  0001 C CNN
F 3 "" H 3100 6950 60  0000 C CNN
	1    3100 6950
	1    0    0    -1  
$EndComp
$Comp
L C C19
U 1 1 56AC4F66
P 3400 6950
F 0 "C19" H 3425 7050 50  0000 L CNN
F 1 "100n" H 3425 6850 50  0000 L CNN
F 2 "Local:C_0603" H 3438 6800 30  0001 C CNN
F 3 "" H 3400 6950 60  0000 C CNN
	1    3400 6950
	1    0    0    -1  
$EndComp
$Comp
L CP C20
U 1 1 56AC4F8E
P 4600 6950
F 0 "C20" H 4625 7050 50  0000 L CNN
F 1 "47u" H 4625 6850 50  0000 L CNN
F 2 "Local:C_Radial_D6.3_L11.2_P2.5" H 4638 6800 30  0001 C CNN
F 3 "" H 4600 6950 60  0000 C CNN
	1    4600 6950
	1    0    0    -1  
$EndComp
$Comp
L GND #PWR03
U 1 1 56AC51D1
P 2800 7300
F 0 "#PWR03" H 2800 7050 50  0001 C CNN
F 1 "GND" H 2800 7150 50  0000 C CNN
F 2 "" H 2800 7300 60  0000 C CNN
F 3 "" H 2800 7300 60  0000 C CNN
	1    2800 7300
	1    0    0    -1  
$EndComp
$Comp
L +3V3 #PWR04
U 1 1 56AC51F4
P 2800 6600
F 0 "#PWR04" H 2800 6450 50  0001 C CNN
F 1 "+3V3" H 2800 6740 50  0000 C CNN
F 2 "" H 2800 6600 60  0000 C CNN
F 3 "" H 2800 6600 60  0000 C CNN
	1    2800 6600
	1    0    0    -1  
$EndComp
$Comp
L AP1117D33 U2
U 1 1 56AC5284
P 4200 6700
F 0 "U2" H 4300 6450 50  0000 C CNN
F 1 "AP1117D33" H 4200 6950 50  0000 C CNN
F 2 "Local:SOT-223" H 4200 6700 60  0001 C CNN
F 3 "" H 4200 6700 60  0000 C CNN
	1    4200 6700
	1    0    0    -1  
$EndComp
$Comp
L +BATT #PWR05
U 1 1 56AC5495
P 3800 6600
F 0 "#PWR05" H 3800 6450 50  0001 C CNN
F 1 "+BATT" H 3800 6740 50  0000 C CNN
F 2 "" H 3800 6600 60  0000 C CNN
F 3 "" H 3800 6600 60  0000 C CNN
	1    3800 6600
	1    0    0    -1  
$EndComp
$Comp
L Battery BT1
U 1 1 56AC54F2
P 5500 6950
F 0 "BT1" H 5350 7050 50  0000 L CNN
F 1 "4V5" H 5350 6850 50  0000 L CNN
F 2 "Local:Pin_Header_Straight_1x02" V 5500 6990 60  0001 C CNN
F 3 "" V 5500 6990 60  0000 C CNN
	1    5500 6950
	-1   0    0    -1  
$EndComp
$Comp
L +3V3 #PWR06
U 1 1 56AC5610
P 4600 6600
F 0 "#PWR06" H 4600 6450 50  0001 C CNN
F 1 "+3V3" H 4600 6740 50  0000 C CNN
F 2 "" H 4600 6600 60  0000 C CNN
F 3 "" H 4600 6600 60  0000 C CNN
	1    4600 6600
	1    0    0    -1  
$EndComp
$Comp
L GND #PWR07
U 1 1 56AC57AB
P 4200 7200
F 0 "#PWR07" H 4200 6950 50  0001 C CNN
F 1 "GND" H 4200 7050 50  0000 C CNN
F 2 "" H 4200 7200 60  0000 C CNN
F 3 "" H 4200 7200 60  0000 C CNN
	1    4200 7200
	1    0    0    -1  
$EndComp
$Comp
L C C11
U 1 1 56AC591B
P 900 6950
F 0 "C11" H 925 7050 50  0000 L CNN
F 1 "10n" H 925 6850 50  0000 L CNN
F 2 "Local:C_0603" H 938 6800 30  0001 C CNN
F 3 "" H 900 6950 60  0000 C CNN
	1    900  6950
	1    0    0    -1  
$EndComp
$Comp
L C C13
U 1 1 56AC5997
P 1500 6950
F 0 "C13" H 1525 7050 50  0000 L CNN
F 1 "10n" H 1525 6850 50  0000 L CNN
F 2 "Local:C_0603" H 1538 6800 30  0001 C CNN
F 3 "" H 1500 6950 60  0000 C CNN
	1    1500 6950
	1    0    0    -1  
$EndComp
$Comp
L CP C12
U 1 1 56AC5AC8
P 1200 6950
F 0 "C12" H 1225 7050 50  0000 L CNN
F 1 "1u" H 1225 6850 50  0000 L CNN
F 2 "Local:C_0805" H 1238 6800 30  0001 C CNN
F 3 "" H 1200 6950 60  0000 C CNN
	1    1200 6950
	1    0    0    -1  
$EndComp
$Comp
L CP C14
U 1 1 56AC5BC9
P 1800 6950
F 0 "C14" H 1825 7050 50  0000 L CNN
F 1 "1u" H 1825 6850 50  0000 L CNN
F 2 "Local:C_0805" H 1838 6800 30  0001 C CNN
F 3 "" H 1800 6950 60  0000 C CNN
	1    1800 6950
	1    0    0    -1  
$EndComp
$Comp
L GND #PWR08
U 1 1 56AC5ED4
P 1350 7300
F 0 "#PWR08" H 1350 7050 50  0001 C CNN
F 1 "GND" H 1350 7150 50  0000 C CNN
F 2 "" H 1350 7300 60  0000 C CNN
F 3 "" H 1350 7300 60  0000 C CNN
	1    1350 7300
	1    0    0    -1  
$EndComp
$Comp
L +3V3 #PWR09
U 1 1 56AC5F09
P 1350 6600
F 0 "#PWR09" H 1350 6450 50  0001 C CNN
F 1 "+3V3" H 1350 6740 50  0000 C CNN
F 2 "" H 1350 6600 60  0000 C CNN
F 3 "" H 1350 6600 60  0000 C CNN
	1    1350 6600
	1    0    0    -1  
$EndComp
Text GLabel 1000 2900 0    47   Input ~ 0
NRST
Text GLabel 1100 2100 0    47   Input ~ 0
SWDIO
Text GLabel 1100 2200 0    47   Input ~ 0
SWCLK
$Comp
L GND #PWR010
U 1 1 56AC6CFE
P 9100 2200
F 0 "#PWR010" H 9100 1950 50  0001 C CNN
F 1 "GND" H 9100 2050 50  0000 C CNN
F 2 "" H 9100 2200 60  0000 C CNN
F 3 "" H 9100 2200 60  0000 C CNN
	1    9100 2200
	1    0    0    -1  
$EndComp
$Comp
L +3V3 #PWR011
U 1 1 56AC6EE4
P 9000 900
F 0 "#PWR011" H 9000 750 50  0001 C CNN
F 1 "+3V3" H 9000 1040 50  0000 C CNN
F 2 "" H 9000 900 60  0000 C CNN
F 3 "" H 9000 900 60  0000 C CNN
	1    9000 900 
	1    0    0    -1  
$EndComp
Text GLabel 9000 1500 0    47   Input ~ 0
RIF_MISO
Text GLabel 9000 1600 0    47   Input ~ 0
RIF_MOSI
Text GLabel 9000 1700 0    47   Input ~ 0
RIF_SCK
Text GLabel 9000 1800 0    47   Input ~ 0
~RIF_CS
Text GLabel 9000 1900 0    47   Input ~ 0
~RIF_IRQ
Text GLabel 1100 1400 0    47   Input ~ 0
RIF_MISO
Text GLabel 1100 1500 0    47   Input ~ 0
RIF_MOSI
Text GLabel 1100 1300 0    47   Input ~ 0
RIF_SCK
Text GLabel 1100 1200 0    47   Input ~ 0
~RIF_CS
$Comp
L GND #PWR012
U 1 1 56AC8796
P 10700 1200
F 0 "#PWR012" H 10700 950 50  0001 C CNN
F 1 "GND" H 10700 1050 50  0000 C CNN
F 2 "" H 10700 1200 60  0000 C CNN
F 3 "" H 10700 1200 60  0000 C CNN
	1    10700 1200
	1    0    0    -1  
$EndComp
$Comp
L CONN_01X01 P1
U 1 1 56AC8904
P 10900 1000
F 0 "P1" H 10900 1100 50  0000 C CNN
F 1 "ANT" H 10900 900 50  0000 C CNN
F 2 "Local:ANT" H 10900 1000 60  0001 C CNN
F 3 "" H 10900 1000 60  0000 C CNN
	1    10900 1000
	1    0    0    -1  
$EndComp
Text GLabel 9000 2000 0    47   Input ~ 0
~RIF_ON
$Comp
L MIC M1
U 1 1 56AC98E5
P 5900 1800
F 0 "M1" H 6100 1800 60  0000 C CNN
F 1 "MIC" H 5900 1800 60  0000 C CNN
F 2 "Local:Pin_Header_Straight_1x02" H 5900 1800 60  0001 C CNN
F 3 "" H 5900 1800 60  0000 C CNN
	1    5900 1800
	1    0    0    -1  
$EndComp
$Comp
L LM358 U1
U 1 1 56AC9A28
P 7500 1600
F 0 "U1" H 7450 1800 60  0000 L CNN
F 1 "LM358" H 7450 1350 60  0000 L CNN
F 2 "Local:SOIJ-8_5.3x5.3mm_Pitch1.27mm" H 7500 1600 60  0001 C CNN
F 3 "" H 7500 1600 60  0000 C CNN
	1    7500 1600
	1    0    0    1   
$EndComp
$Comp
L R R1
U 1 1 56AC9B14
P 5900 1250
F 0 "R1" V 5980 1250 50  0000 C CNN
F 1 "10K" V 5900 1250 50  0000 C CNN
F 2 "Local:R_0603" V 5830 1250 30  0001 C CNN
F 3 "" H 5900 1250 30  0000 C CNN
	1    5900 1250
	-1   0    0    -1  
$EndComp
$Comp
L GND #PWR013
U 1 1 56AC9D09
P 5900 2100
F 0 "#PWR013" H 5900 1850 50  0001 C CNN
F 1 "GND" H 5900 1950 50  0000 C CNN
F 2 "" H 5900 2100 60  0000 C CNN
F 3 "" H 5900 2100 60  0000 C CNN
	1    5900 2100
	1    0    0    -1  
$EndComp
$Comp
L C C2
U 1 1 56AC9FC2
P 6150 1500
F 0 "C2" V 6300 1450 50  0000 L CNN
F 1 "100n" V 6000 1400 50  0000 L CNN
F 2 "Local:C_0603" H 6188 1350 30  0001 C CNN
F 3 "" H 6150 1500 60  0000 C CNN
	1    6150 1500
	0    -1   -1   0   
$EndComp
$Comp
L R R4
U 1 1 56ACA148
P 6550 1500
F 0 "R4" V 6630 1500 50  0000 C CNN
F 1 "1K" V 6550 1500 50  0000 C CNN
F 2 "Local:R_0603" V 6480 1500 30  0001 C CNN
F 3 "" H 6550 1500 30  0000 C CNN
	1    6550 1500
	0    1    -1   0   
$EndComp
$Comp
L CP C3
U 1 1 56ACA668
P 6400 1950
F 0 "C3" H 6425 2050 50  0000 L CNN
F 1 "1u" H 6425 1850 50  0000 L CNN
F 2 "Local:C_0805" H 6438 1800 30  0001 C CNN
F 3 "" H 6400 1950 60  0000 C CNN
	1    6400 1950
	1    0    0    -1  
$EndComp
$Comp
L +3V3 #PWR014
U 1 1 56ACA8FC
P 5900 1000
F 0 "#PWR014" H 5900 850 50  0001 C CNN
F 1 "+3V3" H 5900 1140 50  0000 C CNN
F 2 "" H 5900 1000 60  0000 C CNN
F 3 "" H 5900 1000 60  0000 C CNN
	1    5900 1000
	1    0    0    -1  
$EndComp
$Comp
L GND #PWR015
U 1 1 56ACADD3
P 6800 2200
F 0 "#PWR015" H 6800 1950 50  0001 C CNN
F 1 "GND" H 6800 2050 50  0000 C CNN
F 2 "" H 6800 2200 60  0000 C CNN
F 3 "" H 6800 2200 60  0000 C CNN
	1    6800 2200
	1    0    0    -1  
$EndComp
$Comp
L R R5
U 1 1 56ACAE1D
P 6800 1950
F 0 "R5" V 6880 1950 50  0000 C CNN
F 1 "10K" V 6800 1950 50  0000 C CNN
F 2 "Local:R_0603" V 6730 1950 30  0001 C CNN
F 3 "" H 6800 1950 30  0000 C CNN
	1    6800 1950
	-1   0    0    -1  
$EndComp
$Comp
L GND #PWR016
U 1 1 56ACB01A
P 6400 2200
F 0 "#PWR016" H 6400 1950 50  0001 C CNN
F 1 "GND" H 6400 2050 50  0000 C CNN
F 2 "" H 6400 2200 60  0000 C CNN
F 3 "" H 6400 2200 60  0000 C CNN
	1    6400 2200
	1    0    0    -1  
$EndComp
$Comp
L R R2
U 1 1 56ACB35C
P 6800 1250
F 0 "R2" V 6880 1250 50  0000 C CNN
F 1 "10K" V 6800 1250 50  0000 C CNN
F 2 "Local:R_0603" V 6730 1250 30  0001 C CNN
F 3 "" H 6800 1250 30  0000 C CNN
	1    6800 1250
	-1   0    0    -1  
$EndComp
$Comp
L +3V3 #PWR017
U 1 1 56ACB3D5
P 6800 1000
F 0 "#PWR017" H 6800 850 50  0001 C CNN
F 1 "+3V3" H 6800 1140 50  0000 C CNN
F 2 "" H 6800 1000 60  0000 C CNN
F 3 "" H 6800 1000 60  0000 C CNN
	1    6800 1000
	1    0    0    -1  
$EndComp
$Comp
L R R3
U 1 1 56ACB862
P 8100 1350
F 0 "R3" V 8180 1350 50  0000 C CNN
F 1 "100K" V 8100 1350 50  0000 C CNN
F 2 "Local:R_0603" V 8030 1350 30  0001 C CNN
F 3 "" H 8100 1350 30  0000 C CNN
	1    8100 1350
	-1   0    0    -1  
$EndComp
$Comp
L +3V3 #PWR018
U 1 1 56ACBBCE
P 7400 2200
F 0 "#PWR018" H 7400 2050 50  0001 C CNN
F 1 "+3V3" H 7400 2340 50  0000 C CNN
F 2 "" H 7400 2200 60  0000 C CNN
F 3 "" H 7400 2200 60  0000 C CNN
	1    7400 2200
	-1   0    0    1   
$EndComp
$Comp
L GND #PWR019
U 1 1 56ACBE21
P 7400 1000
F 0 "#PWR019" H 7400 750 50  0001 C CNN
F 1 "GND" H 7400 850 50  0000 C CNN
F 2 "" H 7400 1000 60  0000 C CNN
F 3 "" H 7400 1000 60  0000 C CNN
	1    7400 1000
	-1   0    0    1   
$EndComp
$Comp
L C C1
U 1 1 56ACC04E
P 5500 1250
F 0 "C1" H 5525 1350 50  0000 L CNN
F 1 "100n" H 5525 1150 50  0000 L CNN
F 2 "Local:C_0603" H 5538 1100 30  0001 C CNN
F 3 "" H 5500 1250 60  0000 C CNN
	1    5500 1250
	1    0    0    -1  
$EndComp
$Comp
L +3V3 #PWR020
U 1 1 56ACC38B
P 5500 1000
F 0 "#PWR020" H 5500 850 50  0001 C CNN
F 1 "+3V3" H 5500 1140 50  0000 C CNN
F 2 "" H 5500 1000 60  0000 C CNN
F 3 "" H 5500 1000 60  0000 C CNN
	1    5500 1000
	1    0    0    -1  
$EndComp
$Comp
L GND #PWR021
U 1 1 56ACC3E1
P 5500 1500
F 0 "#PWR021" H 5500 1250 50  0001 C CNN
F 1 "GND" H 5500 1350 50  0000 C CNN
F 2 "" H 5500 1500 60  0000 C CNN
F 3 "" H 5500 1500 60  0000 C CNN
	1    5500 1500
	1    0    0    -1  
$EndComp
Text Notes 5850 2800 0    60   ~ 0
/* maxima */\nQ1: Vout=-Vin*Rfb/Rin+Vcc/2;\nP1: [Rin=1e3, Rfb=100e3, Vcc=3.3, Vout=3.3];\nsolve(Q1, Vin), P1, numer;
Text GLabel 8100 1700 3    47   Input ~ 0
SND_IN
Text GLabel 4900 800  2    47   Input ~ 0
SND_IN
Text Notes 9400 750  0    60   ~ 0
RADIO INTERFACE
Text Notes 6450 750  0    60   ~ 0
SOUND INPUT
Text Notes 2350 6350 0    60   ~ 0
POWER SCHEME
$Comp
L Crystal Y1
U 1 1 56ACEDF2
P 1150 5200
F 0 "Y1" H 1150 5350 50  0000 C CNN
F 1 "8Mhz" H 1150 5050 50  0000 C CNN
F 2 "Local:Crystal_HC49-U_Vertical" H 1150 5200 60  0001 C CNN
F 3 "" H 1150 5200 60  0000 C CNN
	1    1150 5200
	1    0    0    -1  
$EndComp
$Comp
L C C6
U 1 1 56ACEF76
P 900 5450
F 0 "C6" H 925 5550 50  0000 L CNN
F 1 "27p" H 925 5350 50  0000 L CNN
F 2 "Local:C_0603" H 938 5300 30  0001 C CNN
F 3 "" H 900 5450 60  0000 C CNN
	1    900  5450
	1    0    0    -1  
$EndComp
$Comp
L C C7
U 1 1 56ACF085
P 1400 5450
F 0 "C7" H 1425 5550 50  0000 L CNN
F 1 "27p" H 1425 5350 50  0000 L CNN
F 2 "Local:C_0603" H 1438 5300 30  0001 C CNN
F 3 "" H 1400 5450 60  0000 C CNN
	1    1400 5450
	1    0    0    -1  
$EndComp
$Comp
L GND #PWR022
U 1 1 56ACF395
P 1150 5800
F 0 "#PWR022" H 1150 5550 50  0001 C CNN
F 1 "GND" H 1150 5650 50  0000 C CNN
F 2 "" H 1150 5800 60  0000 C CNN
F 3 "" H 1150 5800 60  0000 C CNN
	1    1150 5800
	1    0    0    -1  
$EndComp
Text GLabel 900  5100 1    47   Input ~ 0
OSC_IN
Text GLabel 1400 5100 1    47   Input ~ 0
OSC_OUT
Text GLabel 1100 2500 0    47   Input ~ 0
OSC_IN
Text GLabel 1100 2600 0    47   Input ~ 0
OSC_OUT
$Comp
L C C8
U 1 1 56AD04EC
P 2000 5550
F 0 "C8" H 2025 5650 50  0000 L CNN
F 1 "10n" H 2025 5450 50  0000 L CNN
F 2 "Local:C_0603" H 2038 5400 30  0001 C CNN
F 3 "" H 2000 5550 60  0000 C CNN
	1    2000 5550
	1    0    0    -1  
$EndComp
$Comp
L R R14
U 1 1 56AD068D
P 2000 5050
F 0 "R14" V 2080 5050 50  0000 C CNN
F 1 "10K" V 2000 5050 50  0000 C CNN
F 2 "Local:R_0603" V 1930 5050 30  0001 C CNN
F 3 "" H 2000 5050 30  0000 C CNN
	1    2000 5050
	-1   0    0    -1  
$EndComp
$Comp
L +3V3 #PWR023
U 1 1 56AD09DB
P 2000 4800
F 0 "#PWR023" H 2000 4650 50  0001 C CNN
F 1 "+3V3" H 2000 4940 50  0000 C CNN
F 2 "" H 2000 4800 60  0000 C CNN
F 3 "" H 2000 4800 60  0000 C CNN
	1    2000 4800
	1    0    0    -1  
$EndComp
$Comp
L GND #PWR024
U 1 1 56AD0A83
P 2000 5800
F 0 "#PWR024" H 2000 5550 50  0001 C CNN
F 1 "GND" H 2000 5650 50  0000 C CNN
F 2 "" H 2000 5800 60  0000 C CNN
F 3 "" H 2000 5800 60  0000 C CNN
	1    2000 5800
	1    0    0    -1  
$EndComp
Text GLabel 1900 5300 0    47   Input ~ 0
NRST
$Comp
L Q_NMOS_GSD Q3
U 1 1 56AD3AE1
P 6500 4500
F 0 "Q3" H 6400 4600 50  0000 R CNN
F 1 "SI2306" H 6550 4350 50  0000 R CNN
F 2 "Local:SOT-23" H 6700 4600 29  0001 C CNN
F 3 "" H 6500 4500 60  0000 C CNN
	1    6500 4500
	1    0    0    -1  
$EndComp
$Comp
L Q_PMOS_GSD Q1
U 1 1 56AD3B5A
P 6500 3900
F 0 "Q1" H 6400 3800 50  0000 R CNN
F 1 "SI2307" H 6550 4050 50  0000 R CNN
F 2 "Local:SOT-23" H 6700 4000 29  0001 C CNN
F 3 "" H 6500 3900 60  0000 C CNN
	1    6500 3900
	1    0    0    1   
$EndComp
$Comp
L R R8
U 1 1 56AD456E
P 5950 3900
F 0 "R8" V 6030 3900 50  0000 C CNN
F 1 "150" V 5950 3900 50  0000 C CNN
F 2 "Local:R_0603" V 5880 3900 30  0001 C CNN
F 3 "" H 5950 3900 30  0000 C CNN
	1    5950 3900
	0    1    -1   0   
$EndComp
$Comp
L R R10
U 1 1 56AD471D
P 5950 4500
F 0 "R10" V 6030 4500 50  0000 C CNN
F 1 "150" V 5950 4500 50  0000 C CNN
F 2 "Local:R_0603" V 5880 4500 30  0001 C CNN
F 3 "" H 5950 4500 30  0000 C CNN
	1    5950 4500
	0    1    -1   0   
$EndComp
$Comp
L R R6
U 1 1 56AD4C7B
P 6200 3650
F 0 "R6" V 6280 3650 50  0000 C CNN
F 1 "10K" V 6200 3650 50  0000 C CNN
F 2 "Local:R_0603" V 6130 3650 30  0001 C CNN
F 3 "" H 6200 3650 30  0000 C CNN
	1    6200 3650
	-1   0    0    1   
$EndComp
$Comp
L R R12
U 1 1 56AD5158
P 6200 4750
F 0 "R12" V 6280 4750 50  0000 C CNN
F 1 "10K" V 6200 4750 50  0000 C CNN
F 2 "Local:R_0603" V 6130 4750 30  0001 C CNN
F 3 "" H 6200 4750 30  0000 C CNN
	1    6200 4750
	-1   0    0    1   
$EndComp
$Comp
L Q_PMOS_GSD Q2
U 1 1 56AD5460
P 8100 3900
F 0 "Q2" H 8000 3800 50  0000 R CNN
F 1 "SI2307" H 8150 4050 50  0000 R CNN
F 2 "Local:SOT-23" H 8300 4000 29  0001 C CNN
F 3 "" H 8100 3900 60  0000 C CNN
	1    8100 3900
	-1   0    0    1   
$EndComp
$Comp
L Q_NMOS_GSD Q4
U 1 1 56AD54F9
P 8100 4500
F 0 "Q4" H 8000 4600 50  0000 R CNN
F 1 "SI2306" H 8150 4350 50  0000 R CNN
F 2 "Local:SOT-23" H 8300 4600 29  0001 C CNN
F 3 "" H 8100 4500 60  0000 C CNN
	1    8100 4500
	-1   0    0    -1  
$EndComp
$Comp
L R R13
U 1 1 56AD5591
P 8400 4750
F 0 "R13" V 8480 4750 50  0000 C CNN
F 1 "10K" V 8400 4750 50  0000 C CNN
F 2 "Local:R_0603" V 8330 4750 30  0001 C CNN
F 3 "" H 8400 4750 30  0000 C CNN
	1    8400 4750
	-1   0    0    1   
$EndComp
$Comp
L R R7
U 1 1 56AD570D
P 8400 3650
F 0 "R7" V 8480 3650 50  0000 C CNN
F 1 "10K" V 8400 3650 50  0000 C CNN
F 2 "Local:R_0603" V 8330 3650 30  0001 C CNN
F 3 "" H 8400 3650 30  0000 C CNN
	1    8400 3650
	-1   0    0    1   
$EndComp
$Comp
L R R9
U 1 1 56AD57C5
P 8650 3900
F 0 "R9" V 8730 3900 50  0000 C CNN
F 1 "150" V 8650 3900 50  0000 C CNN
F 2 "Local:R_0603" V 8580 3900 30  0001 C CNN
F 3 "" H 8650 3900 30  0000 C CNN
	1    8650 3900
	0    1    -1   0   
$EndComp
$Comp
L R R11
U 1 1 56AD588E
P 8650 4500
F 0 "R11" V 8730 4500 50  0000 C CNN
F 1 "150" V 8650 4500 50  0000 C CNN
F 2 "Local:R_0603" V 8580 4500 30  0001 C CNN
F 3 "" H 8650 4500 30  0000 C CNN
	1    8650 4500
	0    1    -1   0   
$EndComp
$Comp
L L_Small L1
U 1 1 56AD93F4
P 6800 4200
F 0 "L1" V 6900 4150 50  0000 L CNN
F 1 "22u" V 6750 4100 50  0000 L CNN
F 2 "Local:R_0805" H 6800 4200 60  0001 C CNN
F 3 "" H 6800 4200 60  0000 C CNN
	1    6800 4200
	0    -1   -1   0   
$EndComp
$Comp
L CP_Small C5
U 1 1 56AD9953
P 7800 4200
F 0 "C5" V 7900 4150 50  0000 L CNN
F 1 "220u" V 7700 4100 50  0000 L CNN
F 2 "Local:C_Radial_D6.3_L11.2_P2.5" H 7800 4200 60  0001 C CNN
F 3 "" H 7800 4200 60  0000 C CNN
	1    7800 4200
	0    -1   -1   0   
$EndComp
$Comp
L SPK S1
U 1 1 56AD9EEB
P 7300 3900
F 0 "S1" V 7100 3900 60  0000 C CNN
F 1 "8R" V 7300 3900 60  0000 C CNN
F 2 "Local:Pin_Header_Straight_1x02" H 7300 3900 60  0001 C CNN
F 3 "" H 7300 3900 60  0000 C CNN
	1    7300 3900
	0    -1   1    0   
$EndComp
$Comp
L C_Small C4
U 1 1 56ADAB3D
P 7300 4200
F 0 "C4" V 7400 4150 50  0000 L CNN
F 1 "330n" V 7200 4100 50  0000 L CNN
F 2 "Local:C_0805" H 7300 4200 60  0001 C CNN
F 3 "" H 7300 4200 60  0000 C CNN
	1    7300 4200
	0    -1   -1   0   
$EndComp
Text GLabel 5700 3900 0    47   Input ~ 0
SND_1N
Text GLabel 5700 4500 0    47   Input ~ 0
SND_2P
Text GLabel 8900 3900 2    47   Input ~ 0
SND_2N
Text GLabel 8900 4500 2    47   Input ~ 0
SND_1P
Text Notes 6950 3450 0    59   ~ 0
SOUND OUTPUT
Wire Wire Line
	1000 4000 1200 4000
Wire Wire Line
	1000 3000 1000 4000
Wire Wire Line
	800  3800 1200 3800
Wire Wire Line
	1200 3600 1000 3600
Connection ~ 1000 3800
Wire Wire Line
	1200 3400 1000 3400
Connection ~ 1000 3600
Wire Wire Line
	1100 3700 1200 3700
Wire Wire Line
	1100 2800 1100 4100
Wire Wire Line
	1100 3900 1200 3900
Wire Wire Line
	1200 3500 1100 3500
Connection ~ 1100 3700
Wire Wire Line
	1200 3300 1100 3300
Connection ~ 1100 3500
Connection ~ 1100 3900
Wire Wire Line
	800  3800 800  3650
Wire Wire Line
	1200 3200 1000 3200
Connection ~ 1000 3400
Wire Wire Line
	1200 3100 1100 3100
Connection ~ 1100 3300
Wire Wire Line
	2200 6800 2200 6700
Wire Wire Line
	2200 6700 3400 6700
Wire Wire Line
	3400 6700 3400 6800
Wire Wire Line
	3100 6800 3100 6700
Connection ~ 3100 6700
Wire Wire Line
	2800 6600 2800 6800
Connection ~ 2800 6700
Wire Wire Line
	2500 6800 2500 6700
Connection ~ 2500 6700
Wire Wire Line
	2200 7100 2200 7200
Wire Wire Line
	2200 7200 3400 7200
Wire Wire Line
	3400 7200 3400 7100
Wire Wire Line
	3100 7100 3100 7200
Connection ~ 3100 7200
Wire Wire Line
	2800 7100 2800 7300
Connection ~ 2800 7200
Wire Wire Line
	2500 7100 2500 7200
Connection ~ 2500 7200
Wire Wire Line
	4600 6600 4600 6800
Wire Wire Line
	4600 7200 4600 7100
Wire Wire Line
	4600 6700 4500 6700
Wire Wire Line
	3900 6700 3800 6700
Wire Wire Line
	3800 6700 3800 6600
Connection ~ 4600 6700
Wire Wire Line
	900  6800 900  6700
Wire Wire Line
	900  6700 1800 6700
Wire Wire Line
	1800 6700 1800 6800
Wire Wire Line
	1500 6800 1500 6700
Connection ~ 1500 6700
Wire Wire Line
	1200 6800 1200 6700
Connection ~ 1200 6700
Wire Wire Line
	900  7100 900  7200
Wire Wire Line
	900  7200 1800 7200
Wire Wire Line
	1800 7200 1800 7100
Wire Wire Line
	1500 7100 1500 7200
Connection ~ 1500 7200
Wire Wire Line
	1200 7100 1200 7200
Connection ~ 1200 7200
Wire Wire Line
	1350 6700 1350 6600
Connection ~ 1350 6700
Wire Wire Line
	1350 7200 1350 7300
Connection ~ 1350 7200
Wire Wire Line
	1200 3000 1000 3000
Connection ~ 1000 3200
Wire Wire Line
	1200 2800 1100 2800
Connection ~ 1100 3100
Wire Wire Line
	1200 2900 1000 2900
Wire Wire Line
	1200 2100 1100 2100
Wire Wire Line
	1200 2200 1100 2200
Wire Wire Line
	9200 1000 9100 1000
Wire Wire Line
	9100 1000 9100 2200
Wire Wire Line
	9100 2100 9200 2100
Connection ~ 9100 2100
Wire Wire Line
	9200 1400 9000 1400
Wire Wire Line
	9000 1400 9000 900 
Wire Wire Line
	9200 1500 9000 1500
Wire Wire Line
	9200 1600 9000 1600
Wire Wire Line
	9200 1700 9000 1700
Wire Wire Line
	9200 1800 9000 1800
Wire Wire Line
	9200 1900 9000 1900
Wire Wire Line
	9200 2000 9000 2000
Wire Wire Line
	1100 1200 1200 1200
Wire Wire Line
	1100 1300 1200 1300
Wire Wire Line
	1100 1400 1200 1400
Wire Wire Line
	1100 1500 1200 1500
Wire Wire Line
	1200 1600 1100 1600
Wire Wire Line
	4800 800  4900 800 
Wire Wire Line
	10600 1000 10700 1000
Wire Wire Line
	10600 1100 10700 1100
Wire Wire Line
	10700 1100 10700 1200
Wire Wire Line
	1200 800  1100 800 
Wire Wire Line
	5900 2000 5900 2100
Wire Wire Line
	5900 1400 5900 1600
Wire Wire Line
	5900 1500 6000 1500
Connection ~ 5900 1500
Wire Wire Line
	6400 1500 6300 1500
Wire Wire Line
	5900 1000 5900 1100
Wire Wire Line
	6700 1500 7000 1500
Wire Wire Line
	6800 1400 6800 1800
Wire Wire Line
	6400 1700 7000 1700
Wire Wire Line
	6800 2100 6800 2200
Wire Wire Line
	6400 1800 6400 1700
Connection ~ 6800 1700
Wire Wire Line
	6400 2100 6400 2200
Wire Wire Line
	6800 1100 6800 1000
Wire Wire Line
	6900 1500 6900 1100
Wire Wire Line
	6900 1100 8100 1100
Wire Wire Line
	8100 1100 8100 1200
Wire Wire Line
	8100 1500 8100 1700
Wire Wire Line
	8100 1600 8000 1600
Wire Wire Line
	7400 1200 7400 1000
Wire Wire Line
	7400 2000 7400 2200
Wire Wire Line
	5500 1400 5500 1500
Wire Wire Line
	5500 1000 5500 1100
Connection ~ 8100 1600
Wire Notes Line
	8400 600  11100 600 
Wire Notes Line
	11100 600  11100 2500
Wire Notes Line
	11100 2500 8400 2500
Wire Notes Line
	8400 2500 8400 600 
Wire Notes Line
	5300 600  8300 600 
Wire Notes Line
	8300 600  8300 2900
Wire Notes Line
	8300 2900 5300 2900
Wire Notes Line
	5300 2900 5300 600 
Wire Notes Line
	700  6200 4900 6200
Wire Notes Line
	4900 6200 4900 7600
Wire Notes Line
	4900 7600 700  7600
Wire Notes Line
	700  7600 700  6200
Wire Wire Line
	1400 5100 1400 5300
Wire Wire Line
	1400 5200 1300 5200
Wire Wire Line
	900  5100 900  5300
Wire Wire Line
	900  5200 1000 5200
Wire Wire Line
	900  5600 900  5700
Wire Wire Line
	900  5700 1400 5700
Wire Wire Line
	1400 5700 1400 5600
Wire Wire Line
	1150 5700 1150 5800
Connection ~ 1150 5700
Connection ~ 900  5200
Connection ~ 1400 5200
Wire Wire Line
	1200 2500 1100 2500
Wire Wire Line
	1100 2600 1200 2600
Wire Wire Line
	2000 5200 2000 5400
Wire Wire Line
	2000 4800 2000 4900
Wire Wire Line
	2000 5700 2000 5800
Wire Wire Line
	2000 5300 1900 5300
Connection ~ 2000 5300
Wire Wire Line
	1200 1900 1100 1900
Wire Wire Line
	1200 2000 1100 2000
Wire Wire Line
	1200 900  1100 900 
Wire Wire Line
	1200 1000 1100 1000
Wire Wire Line
	1200 1100 1100 1100
Wire Wire Line
	1200 1700 1100 1700
Wire Wire Line
	1200 1800 1100 1800
Wire Wire Line
	1100 2300 1200 2300
Wire Wire Line
	1100 2700 1200 2700
Wire Wire Line
	4800 900  4900 900 
Wire Wire Line
	4800 1000 4900 1000
Wire Wire Line
	4800 1100 4900 1100
Wire Wire Line
	4800 1200 4900 1200
Wire Wire Line
	4800 1300 4900 1300
Wire Wire Line
	4800 1400 4900 1400
Wire Wire Line
	4800 1500 4900 1500
Wire Wire Line
	4800 1600 4900 1600
Wire Wire Line
	4800 1700 4900 1700
Wire Wire Line
	4800 1800 4900 1800
Wire Wire Line
	4800 1900 4900 1900
Wire Wire Line
	4800 2000 4900 2000
Wire Wire Line
	4800 2100 4900 2100
Wire Wire Line
	4800 2200 4900 2200
Wire Wire Line
	4800 2300 4900 2300
Wire Wire Line
	4800 2500 4900 2500
Wire Wire Line
	4800 2600 4900 2600
Wire Wire Line
	4800 2700 4900 2700
Wire Wire Line
	4800 2800 4900 2800
Wire Wire Line
	4800 2900 4900 2900
Wire Wire Line
	4800 3000 4900 3000
Wire Wire Line
	4800 3100 4900 3100
Wire Wire Line
	4800 3200 4900 3200
Wire Wire Line
	4800 3300 4900 3300
Wire Wire Line
	4800 3400 4900 3400
Wire Wire Line
	4800 3500 4900 3500
Wire Wire Line
	4800 3600 4900 3600
Wire Wire Line
	4800 3700 4900 3700
Wire Wire Line
	4800 3800 4900 3800
Wire Wire Line
	4800 3900 4900 3900
Wire Wire Line
	4800 4000 4900 4000
Wire Wire Line
	6600 4100 6600 4300
Wire Wire Line
	6600 4700 6600 5100
Wire Wire Line
	6600 3300 6600 3700
Wire Wire Line
	6100 3900 6300 3900
Wire Wire Line
	6100 4500 6300 4500
Wire Wire Line
	5800 3900 5700 3900
Wire Wire Line
	5800 4500 5700 4500
Wire Wire Line
	6600 4200 6700 4200
Connection ~ 6600 4200
Wire Wire Line
	6200 3800 6200 3900
Connection ~ 6200 3900
Wire Wire Line
	6200 3500 6200 3400
Wire Wire Line
	6200 3400 6600 3400
Wire Wire Line
	6200 4500 6200 4600
Connection ~ 6200 4500
Wire Wire Line
	6200 4900 6200 5000
Wire Wire Line
	6200 5000 6600 5000
Wire Wire Line
	8300 3900 8500 3900
Wire Wire Line
	8400 3900 8400 3800
Connection ~ 8400 3900
Wire Wire Line
	8300 4500 8500 4500
Wire Wire Line
	8400 4500 8400 4600
Connection ~ 8400 4500
Wire Wire Line
	8000 4100 8000 4300
Wire Wire Line
	8000 4200 7900 4200
Connection ~ 8000 4200
Wire Wire Line
	8000 3300 8000 3700
Wire Wire Line
	8000 3400 8400 3400
Wire Wire Line
	8400 3400 8400 3500
Wire Wire Line
	8000 4700 8000 5100
Wire Wire Line
	8000 5000 8400 5000
Wire Wire Line
	8400 5000 8400 4900
Wire Wire Line
	8800 4500 8900 4500
Wire Wire Line
	8800 3900 8900 3900
Wire Wire Line
	6900 4200 7200 4200
Wire Wire Line
	7400 4200 7700 4200
Wire Wire Line
	7000 3900 7100 3900
Wire Wire Line
	7500 3900 7600 3900
Wire Wire Line
	7600 3900 7600 4200
Connection ~ 7600 4200
$Comp
L GND #PWR025
U 1 1 56ADCEF6
P 6600 5100
F 0 "#PWR025" H 6600 4850 50  0001 C CNN
F 1 "GND" H 6600 4950 50  0000 C CNN
F 2 "" H 6600 5100 60  0000 C CNN
F 3 "" H 6600 5100 60  0000 C CNN
	1    6600 5100
	1    0    0    -1  
$EndComp
Wire Wire Line
	7000 3900 7000 4200
Connection ~ 7000 4200
Connection ~ 6600 3400
Connection ~ 8000 3400
Connection ~ 8000 5000
Connection ~ 6600 5000
$Comp
L GND #PWR026
U 1 1 56ADE019
P 8000 5100
F 0 "#PWR026" H 8000 4850 50  0001 C CNN
F 1 "GND" H 8000 4950 50  0000 C CNN
F 2 "" H 8000 5100 60  0000 C CNN
F 3 "" H 8000 5100 60  0000 C CNN
	1    8000 5100
	1    0    0    -1  
$EndComp
$Comp
L +3V3 #PWR027
U 1 1 56ADE1C2
P 6600 3300
F 0 "#PWR027" H 6600 3150 50  0001 C CNN
F 1 "+3V3" H 6600 3440 50  0000 C CNN
F 2 "" H 6600 3300 60  0000 C CNN
F 3 "" H 6600 3300 60  0000 C CNN
	1    6600 3300
	1    0    0    -1  
$EndComp
$Comp
L +3V3 #PWR028
U 1 1 56ADE36B
P 8000 3300
F 0 "#PWR028" H 8000 3150 50  0001 C CNN
F 1 "+3V3" H 8000 3440 50  0000 C CNN
F 2 "" H 8000 3300 60  0000 C CNN
F 3 "" H 8000 3300 60  0000 C CNN
	1    8000 3300
	1    0    0    -1  
$EndComp
Wire Notes Line
	5300 3000 9300 3000
Wire Notes Line
	9300 3000 9300 5400
Wire Notes Line
	9300 5400 5300 5400
Wire Notes Line
	5300 5400 5300 3000
Text GLabel 4900 3800 2    47   Input ~ 0
SND_1N
Text GLabel 4900 3900 2    47   Input ~ 0
SND_2N
Text GLabel 1100 1600 0    47   Input ~ 0
SND_1P
Text GLabel 1100 1700 0    47   Input ~ 0
SND_2P
$Comp
L SW_PUSH_SMALL SW1
U 1 1 56AE0C45
P 2700 5400
F 0 "SW1" H 2750 5500 30  0000 C CNN
F 1 "CALL" H 2700 5321 30  0000 C CNN
F 2 "Local:MICRO_SW" H 2700 5400 60  0001 C CNN
F 3 "" H 2700 5400 60  0000 C CNN
	1    2700 5400
	1    0    0    -1  
$EndComp
$Comp
L SW_PUSH_SMALL SW2
U 1 1 56AE0FA0
P 3500 5400
F 0 "SW2" H 3550 5500 30  0000 C CNN
F 1 "SPEAK" H 3500 5321 30  0000 C CNN
F 2 "Local:SW_SPK" H 3500 5400 60  0001 C CNN
F 3 "" H 3500 5400 60  0000 C CNN
	1    3500 5400
	1    0    0    -1  
$EndComp
$Comp
L R R15
U 1 1 56AE11DB
P 2500 5050
F 0 "R15" V 2580 5050 50  0000 C CNN
F 1 "10K" V 2500 5050 50  0000 C CNN
F 2 "Local:R_0603" V 2430 5050 30  0001 C CNN
F 3 "" H 2500 5050 30  0000 C CNN
	1    2500 5050
	-1   0    0    -1  
$EndComp
$Comp
L R R16
U 1 1 56AE12B6
P 3300 5050
F 0 "R16" V 3380 5050 50  0000 C CNN
F 1 "10K" V 3300 5050 50  0000 C CNN
F 2 "Local:R_0603" V 3230 5050 30  0001 C CNN
F 3 "" H 3300 5050 30  0000 C CNN
	1    3300 5050
	-1   0    0    -1  
$EndComp
$Comp
L C C9
U 1 1 56AE1460
P 2500 5550
F 0 "C9" H 2525 5650 50  0000 L CNN
F 1 "100n" H 2525 5450 50  0000 L CNN
F 2 "Local:C_0603" H 2538 5400 30  0001 C CNN
F 3 "" H 2500 5550 60  0000 C CNN
	1    2500 5550
	1    0    0    -1  
$EndComp
$Comp
L C C10
U 1 1 56AE1535
P 3300 5550
F 0 "C10" H 3325 5650 50  0000 L CNN
F 1 "100n" H 3325 5450 50  0000 L CNN
F 2 "Local:C_0603" H 3338 5400 30  0001 C CNN
F 3 "" H 3300 5550 60  0000 C CNN
	1    3300 5550
	1    0    0    -1  
$EndComp
$Comp
L GND #PWR029
U 1 1 56AE1609
P 2500 5900
F 0 "#PWR029" H 2500 5650 50  0001 C CNN
F 1 "GND" H 2500 5750 50  0000 C CNN
F 2 "" H 2500 5900 60  0000 C CNN
F 3 "" H 2500 5900 60  0000 C CNN
	1    2500 5900
	1    0    0    -1  
$EndComp
$Comp
L GND #PWR030
U 1 1 56AE16B0
P 3300 5900
F 0 "#PWR030" H 3300 5650 50  0001 C CNN
F 1 "GND" H 3300 5750 50  0000 C CNN
F 2 "" H 3300 5900 60  0000 C CNN
F 3 "" H 3300 5900 60  0000 C CNN
	1    3300 5900
	1    0    0    -1  
$EndComp
$Comp
L +3V3 #PWR031
U 1 1 56AE1757
P 2500 4800
F 0 "#PWR031" H 2500 4650 50  0001 C CNN
F 1 "+3V3" H 2500 4940 50  0000 C CNN
F 2 "" H 2500 4800 60  0000 C CNN
F 3 "" H 2500 4800 60  0000 C CNN
	1    2500 4800
	1    0    0    -1  
$EndComp
$Comp
L +3V3 #PWR032
U 1 1 56AE17FE
P 3300 4800
F 0 "#PWR032" H 3300 4650 50  0001 C CNN
F 1 "+3V3" H 3300 4940 50  0000 C CNN
F 2 "" H 3300 4800 60  0000 C CNN
F 3 "" H 3300 4800 60  0000 C CNN
	1    3300 4800
	1    0    0    -1  
$EndComp
Wire Wire Line
	2500 4800 2500 4900
Wire Wire Line
	3300 4800 3300 4900
Wire Wire Line
	2500 5200 2500 5400
Wire Wire Line
	2400 5300 2600 5300
Connection ~ 2500 5300
Wire Wire Line
	2800 5500 2800 5800
Wire Wire Line
	2800 5800 2500 5800
Wire Wire Line
	2500 5700 2500 5900
Connection ~ 2500 5800
Wire Wire Line
	3300 5700 3300 5900
Wire Wire Line
	3300 5800 3600 5800
Wire Wire Line
	3600 5800 3600 5500
Connection ~ 3300 5800
Wire Wire Line
	3300 5200 3300 5400
Wire Wire Line
	3200 5300 3400 5300
Connection ~ 3300 5300
Text GLabel 2400 5300 0    47   Input ~ 0
~CALL
Text GLabel 3200 5300 0    47   Input ~ 0
~SPEAK
Text GLabel 4900 1400 2    47   Input ~ 0
~CALL
Text GLabel 4900 1500 2    47   Input ~ 0
~SPEAK
$Comp
L CONN_01X04 P2
U 1 1 56AE4830
P 4500 4650
F 0 "P2" H 4500 4400 50  0000 C CNN
F 1 "SWD" V 4600 4650 50  0000 C CNN
F 2 "Local:Pin_Header_Straight_1x04" H 4500 4650 60  0001 C CNN
F 3 "" H 4500 4650 60  0000 C CNN
	1    4500 4650
	1    0    0    1   
$EndComp
$Comp
L GND #PWR033
U 1 1 56AE499A
P 4200 4900
F 0 "#PWR033" H 4200 4650 50  0001 C CNN
F 1 "GND" H 4200 4750 50  0000 C CNN
F 2 "" H 4200 4900 60  0000 C CNN
F 3 "" H 4200 4900 60  0000 C CNN
	1    4200 4900
	1    0    0    -1  
$EndComp
$Comp
L +3V3 #PWR034
U 1 1 56AE4A4B
P 4200 4400
F 0 "#PWR034" H 4200 4250 50  0001 C CNN
F 1 "+3V3" H 4200 4540 50  0000 C CNN
F 2 "" H 4200 4400 60  0000 C CNN
F 3 "" H 4200 4400 60  0000 C CNN
	1    4200 4400
	1    0    0    -1  
$EndComp
Wire Wire Line
	4300 4800 4200 4800
Wire Wire Line
	4200 4800 4200 4900
Wire Wire Line
	4300 4600 4200 4600
Wire Wire Line
	4200 4600 4200 4400
Wire Wire Line
	4300 4500 4100 4500
Wire Wire Line
	4300 4700 4100 4700
Text GLabel 4100 4500 0    47   Input ~ 0
SWDIO
Text GLabel 4100 4700 0    47   Input ~ 0
SWCLK
$Comp
L SPST SW3
U 1 1 56AE6990
P 6100 6700
F 0 "SW3" H 6100 6800 50  0000 C CNN
F 1 "PWON" H 6100 6600 50  0000 C CNN
F 2 "Local:SW_ON" H 6100 6700 60  0001 C CNN
F 3 "" H 6100 6700 60  0000 C CNN
	1    6100 6700
	1    0    0    -1  
$EndComp
Wire Wire Line
	5600 6700 5500 6700
Wire Wire Line
	5500 6700 5500 6800
Wire Wire Line
	5500 7100 5500 7200
$Comp
L GND #PWR035
U 1 1 56AE715D
P 5500 7200
F 0 "#PWR035" H 5500 6950 50  0001 C CNN
F 1 "GND" H 5500 7050 50  0000 C CNN
F 2 "" H 5500 7200 60  0000 C CNN
F 3 "" H 5500 7200 60  0000 C CNN
	1    5500 7200
	1    0    0    -1  
$EndComp
$Comp
L +BATT #PWR036
U 1 1 56AE7385
P 6700 6600
F 0 "#PWR036" H 6700 6450 50  0001 C CNN
F 1 "+BATT" H 6700 6740 50  0000 C CNN
F 2 "" H 6700 6600 60  0000 C CNN
F 3 "" H 6700 6600 60  0000 C CNN
	1    6700 6600
	1    0    0    -1  
$EndComp
Wire Wire Line
	6600 6700 6700 6700
Wire Wire Line
	6700 6700 6700 6600
$Comp
L GND #PWR037
U 1 1 56AE7AEA
P 4600 7200
F 0 "#PWR037" H 4600 6950 50  0001 C CNN
F 1 "GND" H 4600 7050 50  0000 C CNN
F 2 "" H 4600 7200 60  0000 C CNN
F 3 "" H 4600 7200 60  0000 C CNN
	1    4600 7200
	1    0    0    -1  
$EndComp
Wire Wire Line
	4200 7000 4200 7200
$Comp
L CONN_01X04 P3
U 1 1 56AE910D
P 4500 5650
F 0 "P3" H 4500 5400 50  0000 C CNN
F 1 "UART" V 4600 5650 50  0000 C CNN
F 2 "Local:Pin_Header_Straight_1x04" H 4500 5650 60  0001 C CNN
F 3 "" H 4500 5650 60  0000 C CNN
	1    4500 5650
	1    0    0    1   
$EndComp
$Comp
L +3V3 #PWR038
U 1 1 56AE9412
P 4200 5400
F 0 "#PWR038" H 4200 5250 50  0001 C CNN
F 1 "+3V3" H 4200 5540 50  0000 C CNN
F 2 "" H 4200 5400 60  0000 C CNN
F 3 "" H 4200 5400 60  0000 C CNN
	1    4200 5400
	1    0    0    -1  
$EndComp
Wire Wire Line
	4300 5600 4200 5600
Wire Wire Line
	4200 5600 4200 5400
Wire Wire Line
	4300 5500 4100 5500
Text GLabel 4100 5500 0    47   Input ~ 0
UART_TX
Text GLabel 4100 5700 0    47   Input ~ 0
UART_RX
Wire Wire Line
	4300 5700 4100 5700
Wire Wire Line
	4300 5800 4200 5800
Wire Wire Line
	4200 5800 4200 5900
$Comp
L GND #PWR039
U 1 1 56AE9C6F
P 4200 5900
F 0 "#PWR039" H 4200 5650 50  0001 C CNN
F 1 "GND" H 4200 5750 50  0000 C CNN
F 2 "" H 4200 5900 60  0000 C CNN
F 3 "" H 4200 5900 60  0000 C CNN
	1    4200 5900
	1    0    0    -1  
$EndComp
Text GLabel 4900 3100 2    47   Input ~ 0
UART_TX
Text GLabel 4900 3200 2    47   Input ~ 0
UART_RX
Text GLabel 4900 1700 2    47   Input ~ 0
~RIF_ON
Text GLabel 4900 1600 2    47   Input ~ 0
~RIF_IRQ
$Comp
L LED D3
U 1 1 56AF44DA
P 5100 6900
F 0 "D3" H 5100 7000 50  0000 C CNN
F 1 "LED" H 5100 6800 50  0000 C CNN
F 2 "Local:LED-3MM" H 5100 6900 60  0001 C CNN
F 3 "" H 5100 6900 60  0000 C CNN
	1    5100 6900
	0    -1   -1   0   
$EndComp
$Comp
L GND #PWR040
U 1 1 56AF4B92
P 5100 7200
F 0 "#PWR040" H 5100 6950 50  0001 C CNN
F 1 "GND" H 5100 7050 50  0000 C CNN
F 2 "" H 5100 7200 60  0000 C CNN
F 3 "" H 5100 7200 60  0000 C CNN
	1    5100 7200
	1    0    0    -1  
$EndComp
$Comp
L R R17
U 1 1 56AF4C7D
P 5100 6450
F 0 "R17" V 5180 6450 50  0000 C CNN
F 1 "1K" V 5100 6450 50  0000 C CNN
F 2 "Local:R_0603" V 5030 6450 30  0001 C CNN
F 3 "" H 5100 6450 30  0000 C CNN
	1    5100 6450
	-1   0    0    -1  
$EndComp
Wire Wire Line
	5100 6600 5100 6700
Wire Wire Line
	5100 7100 5100 7200
Wire Wire Line
	5100 6300 5100 6200
$Comp
L +3V3 #PWR041
U 1 1 56AF52A3
P 5100 6200
F 0 "#PWR041" H 5100 6050 50  0001 C CNN
F 1 "+3V3" H 5100 6340 50  0000 C CNN
F 2 "" H 5100 6200 60  0000 C CNN
F 3 "" H 5100 6200 60  0000 C CNN
	1    5100 6200
	1    0    0    -1  
$EndComp
NoConn ~ 4900 900 
NoConn ~ 4900 1000
NoConn ~ 4900 1100
NoConn ~ 4900 1200
NoConn ~ 4900 1300
NoConn ~ 4900 1800
NoConn ~ 4900 1900
NoConn ~ 4900 2000
NoConn ~ 4900 2100
NoConn ~ 4900 2200
NoConn ~ 4900 2300
NoConn ~ 4900 2500
NoConn ~ 4900 2600
NoConn ~ 4900 2700
NoConn ~ 4900 2800
NoConn ~ 4900 2900
NoConn ~ 4900 3000
NoConn ~ 4900 3300
NoConn ~ 4900 3400
NoConn ~ 4900 3500
NoConn ~ 4900 3600
NoConn ~ 4900 3700
NoConn ~ 4900 4000
NoConn ~ 1100 800 
NoConn ~ 1100 900 
NoConn ~ 1100 1000
NoConn ~ 1100 1100
NoConn ~ 1100 1800
NoConn ~ 1100 2300
NoConn ~ 1100 2700
Wire Wire Line
	9200 1100 8900 1100
Wire Wire Line
	9200 1200 8900 1200
Wire Wire Line
	9200 1300 8900 1300
NoConn ~ 8900 1100
NoConn ~ 8900 1200
NoConn ~ 8900 1300
NoConn ~ 1100 1900
NoConn ~ 1100 2000
Text Notes 8250 1400 1    60   ~ 0
Rfb
Text Notes 6500 1650 0    60   ~ 0
Rin
Connection ~ 6900 1500
$EndSCHEMATC
